{"medicines":[{"_id":"687d881d9a1329214c4ecb8f","id":"687d881d9a1329214c4ecb8f","name":"TaShya Peterson","genericName":"Arsenio England","description":"Autem reiciendis ame","image":"/uploads/medicines/medicine-1753057309773-930859114.png","category":{"_id":"687d70ecdb0533df4f0eaf17","name":"Tablets"},"company":"Gilbert Rivera Plc","massUnit":"Exercitation quis ip","price":92,"unitPrice":981,"stripPrice":434,"discountPercentage":54,"finalPrice":42.32,"seller":null,"inStock":true,"stockQuantity":575,"isAdvertised":false,"createdAt":"2025-07-21T00:21:49.817Z","updatedAt":"2025-07-21T00:21:49.817Z"}],"pagination":{"currentPage":1,"totalPages":5,"totalItems":5,"hasNext":true,"hasPrev":false}}